Efficient data manipulation with and
…
The filter() function

The filter() allows you to select a subset of the rows of a data frame.

The first argument is the name of the data frame, and the second and subsequent are filtering expressions evaluated in the context of that data frame.

filter(<dataframe>, <logical expression>)

The filter() function

Example 1: select all flights with a tail number equal to “N14228”.

filter(flights, dest == "ORD")

# A tibble: 17,283 × 8
    year month   day  hour minute flight origin dest 
   <dbl> <dbl> <dbl> <dbl>  <dbl>  <dbl> <chr>  <chr>
 1  2013     1     1     5     58   1696 EWR    ORD  
 2  2013     1     1     6      0    301 LGA    ORD  
 3  2013     1     1     6      0   3768 EWR    ORD  
 4  2013     1     1     6     30    303 LGA    ORD  
 5  2013     1     1     7      0    305 LGA    ORD  
 6  2013     1     1     7      0   1092 LGA    ORD  
 7  2013     1     1     7     13    544 EWR    ORD  
 8  2013     1     1     7     45    309 LGA    ORD  
 9  2013     1     1     7     10   3737 EWR    ORD  
10  2013     1     1     8     30    905 JFK    ORD  
# ℹ 17,273 more rows
